DIMENZE[1/2/3]
2

TVAR_POLICKA[0:ctverec/1:trojuh/2:hexagon]
0

TOROIDNI?[0/1]
1

POCET_BAREV[1..255]
1

VELIKOST[1..hodne]
20

TYP_EVOLUCNI_FUNKCE[0/1]
1

ZADANI_EVOLUCNI_FUNKCE
1 3 5 8 -1 
3 5 7	-1
-2
